{
    "swagger": "2.0",
    "info": {
        "title": "Blayn Attendance API",
        "description": "L5 Swagger API description",
        "contact": {
            "email": "dainv.1710@gmail.com"
        },
        "version": "1.0.0"
    },
    "host": "127.0.0.1:8000",
    "basePath": "/api",
    "schemes": [
        "http",
        "https"
    ],
    "paths": {
        "/user-groups": {
            "get": {
                "tags": [
                    "User Groups"
                ],
                "summary": "Get list of user groups",
                "description": "Returns list of user groups",
                "operationId": "getUserGroupsList",
                "responses": {
                    "200": {
                        "description": "successful operation"
                    },
                    "400": {
                        "description": "Bad request"
                    }
                },
                "security": [
                    {
                        "api_key_security_example": []
                    }
                ]
            },
            "post": {
                "tags": [
                    "User Groups"
                ],
                "summary": "Store a newly created user group in storage",
                "description": "Store a newly created user group in storage",
                "operationId": "createNewUserGroup",
                "parameters": [
                    {
                        "name": "name",
                        "in": "body",
                        "description": "Name of user group",
                        "required": true,
                        "schema": "#/definitions/UserGroup",
                        "type": "string"
                    },
                    {
                        "name": "wageGroupId",
                        "in": "body",
                        "description": "Target wage group",
                        "required": true,
                        "schema": "#/definitions/UserGroup",
                        "type": "integer"
                    }
                ],
                "responses": {
                    "200": {
                        "description": "successful operation"
                    },
                    "400": {
                        "description": "Bad request"
                    }
                },
                "security": [
                    {
                        "api_key_security_example": []
                    }
                ]
            }
        },
        "/wage-groups": {
            "get": {
                "tags": [
                    "Wage Groups"
                ],
                "summary": "Get list of wage groups",
                "description": "Returns list of wage groups",
                "operationId": "getWageGroupsList",
                "responses": {
                    "200": {
                        "description": "successful operation"
                    },
                    "400": {
                        "description": "Bad request"
                    }
                },
                "security": [
                    {
                        "api_key_security_example": []
                    }
                ]
            }
        },
        "/projects": {
            "get": {
                "tags": [
                    "Projects"
                ],
                "summary": "Get list of projects",
                "description": "Returns list of projects",
                "operationId": "getProjectsList",
                "responses": {
                    "200": {
                        "description": "successful operation"
                    },
                    "400": {
                        "description": "Bad request"
                    }
                },
                "security": [
                    {
                        "api_key_security_example": []
                    }
                ]
            }
        },
        "/projects/{id}": {
            "get": {
                "tags": [
                    "Projects"
                ],
                "summary": "Get project information",
                "description": "Returns project data",
                "operationId": "getProjectById",
                "parameters": [
                    {
                        "name": "id",
                        "in": "path",
                        "description": "Project id",
                        "required": true,
                        "type": "integer"
                    }
                ],
                "responses": {
                    "200": {
                        "description": "successful operation"
                    },
                    "400": {
                        "description": "Bad request"
                    },
                    "404": {
                        "description": "Resource Not Found"
                    }
                },
                "security": [
                    {
                        "oauth2_security_example": [
                            "write:projects",
                            "read:projects"
                        ]
                    }
                ]
            }
        }
    },
    "definitions": {},
    "securityDefinitions": {
        "passport": {
            "type": "oauth2",
            "flow": "password",
            "tokenUrl": "/oauth/token",
            "scopes": {}
        }
    }
}